<svg width="20" height="20" viewBox="0 0 20 20" fill="none" xmlns="http://www.w3.org/2000/svg">
<circle cx="10" cy="10" r="10" fill="#4497BD"/>
<path d="M6.90631 6.90628L12.9063 12.9063" stroke="#F2E2B0" stroke-width="1.5"/>
<path d="M6.90631 12.9063L12.9063 6.90628" stroke="#F2E2B0" stroke-width="1.5"/>
</svg>
